{"page":2,"total_results":19767,"total_pages":989,"results":[{"vote_count":1070,"id":442249,"video":false,"vote_average":5.8,"title":"The First Purge","popularity":64.729,"poster_path":"\/litjsBoiydO6JlO70uOX4N3WnNL.jpg","original_language":"en","original_title":"The First Purge","genre_ids":[28,878,53,27],"backdrop_path":"\/1hJbE72WiRuWH11QPNiHsvt29xA.jpg","adult":false,"overview":"To push the crime rate below one percent for the rest of the year, the New Founding Fathers of America test a sociological theory that vents aggression for one night in one isolated community. But when the violence of oppressors meets the rage of the others, the contagion will explode from the trial-city borders and spread across the nation.","release_date":"2018-07-04"},{"vote_count":2268,"id":348350,"video":false,"vote_average":6.7,"title":"Solo: A Star Wars Story","popularity":63.984,"poster_path":"\/3IGbjc5ZC5yxim5W0sFING2kdcz.jpg","original_language":"en","original_title":"Solo: A Star Wars Story","genre_ids":[28,12,878],"backdrop_path":"\/5DUqFLgkLsJxyqPCAcgTivZy2SX.jpg","adult":false,"overview":"Through a series of daring escapades deep within a dark and dangerous criminal underworld, Han Solo meets his mighty future copilot Chewbacca and encounters the notorious gambler Lando Calrissian.","release_date":"2018-05-15"},{"vote_count":122,"id":446894,"video":false,"vote_average":6.4,"title":"Smallfoot","popularity":60.6,"poster_path":"\/4nKoB6wMVXfsYgRZK5lHZ5VMQ6J.jpg","original_language":"en","original_title":"Smallfoot","genre_ids":[35,16,10751,12,14],"backdrop_path":"\/7t88SoT3Dd8DhGnQuVoSbMNUl3W.jpg","adult":false,"overview":"A bright young yeti finds something he thought didn't exist—a human. News of this “smallfoot” throws the simple yeti community into an uproar over what else might be out there in the big world beyond their snowy village.","release_date":"2018-09-20"},{"vote_count":15075,"id":118340,"video":false,"vote_average":7.9,"title":"Guardians of the Galaxy","popularity":59.136,"poster_path":"\/y31QB9kn3XSudA15tV7UWQ9XLuW.jpg","original_language":"en","original_title":"Guardians of the Galaxy","genre_ids":[28,878,12],"backdrop_path":"\/bHarw8xrmQeqf3t8HpuMY7zoK4x.jpg","adult":false,"overview":"Light years from Earth, 26 years after being abducted, Peter Quill finds himself the prime target of a manhunt after discovering an orb wanted by Ronan the Accuser.","release_date":"2014-07-30"},{"vote_count":8,"id":523873,"video":false,"vote_average":4.1,"title":"Kung Fu League","popularity":58.337,"poster_path":"\/rW0A73hjzPWVwADlCTLnjLhAFLX.jpg","original_language":"zh","original_title":"功夫联盟","genre_ids":[28,35],"backdrop_path":null,"adult":false,"overview":"Martial arts comedy following a group of kung fu legends banding together to take on the bad guys. The legends includes VINCENT ZHAO reprising his role as ‘Wong Fei Hung’ with DENNIS TO once again portraying ‘Wing Chun’ master ‘Ip Man’, DANNY CHAN KWOK KWAN as ‘Chen Zhen’ and ANDY ON as master ‘Huo Yuan Jia’.","release_date":"2018-10-19"},{"vote_count":238,"id":439015,"video":false,"vote_average":4.4,"title":"Slender Man","popularity":57.857,"poster_path":"\/huSncs4RyvQDBmHjBBYHSBYJbSJ.jpg","original_language":"en","original_title":"Slender Man","genre_ids":[9648,53],"backdrop_path":"\/5K0fgMaJSdEvqSsS8e3Ez4TpvXR.jpg","adult":false,"overview":"In a small town in Massachusetts, four high school girls perform a ritual in an attempt to debunk the lore of Slender Man. When one of the girls goes mysteriously missing, they begin to suspect that she is, in fact, his latest victim.","release_date":"2018-08-10"},{"vote_count":306,"id":399360,"video":false,"vote_average":5.3,"title":"Alpha","popularity":55.296,"poster_path":"\/afdZAIcAQscziqVtsEoh2PwsYTW.jpg","original_language":"en","original_title":"Alpha","genre_ids":[12,18],"backdrop_path":"\/nKMeTdm72LQ756Eq20uTjF1zDXu.jpg","adult":false,"overview":"After a hunting expedition goes awry, a young caveman struggles against the elements to find his way home.","release_date":"2018-08-17"},{"vote_count":856,"id":458423,"video":false,"vote_average":7.5,"title":"Mamma Mia! Here We Go Again","popularity":55.267,"poster_path":"\/aWicerX4Y7n7tUwRAVHsVcBBpj2.jpg","original_language":"en","original_title":"Mamma Mia! Here We Go Again","genre_ids":[35,10749,10402],"backdrop_path":"\/kAErJpVU4ul9R3VzroM8awWrlT2.jpg","adult":false,"overview":"Five years after meeting her three fathers, Sophie Sheridan prepares to open her mother’s hotel. In 1979, young Donna Sheridan meets the men who each could be Sophie’s biological father.","release_date":"2018-07-18"},{"vote_count":1081,"id":447200,"video":false,"vote_average":6.1,"title":"Skyscraper","popularity":54.895,"poster_path":"\/5LYSsOPzuP13201qSzMjNxi8FxN.jpg","original_language":"en","original_title":"Skyscraper","genre_ids":[28,53,18],"backdrop_path":"\/oMKFQmoVgB69fyXfSMu0lGlHJP2.jpg","adult":false,"overview":"Framed and on the run, a former FBI agent must save his family from a blazing fire in the world's tallest building.","release_date":"2018-07-11"},{"vote_count":111,"id":446021,"video":false,"vote_average":6.5,"title":"Bad Times at the El Royale","popularity":53.538,"poster_path":"\/iNtFgXqXPRMkm1QO8CHn5sHfUgE.jpg","original_language":"en","original_title":"Bad Times at the El Royale","genre_ids":[53,80,9648],"backdrop_path":"\/gb3TVVZNNxVGNfS1NxGaiWZfwnW.jpg","adult":false,"overview":"Seven strangers, each with a secret to bury, meet at Lake Tahoe's El Royale, a rundown hotel with a dark past in 1969. Over the course of one fateful night, everyone will have a last shot at redemption.","release_date":"2018-10-04"},{"vote_count":881,"id":400155,"video":false,"vote_average":6.8,"title":"Hotel Transylvania 3: Summer Vacation","popularity":52.195,"poster_path":"\/gjAFM4xhA5vyLxxKMz38ujlUfDL.jpg","original_language":"en","original_title":"Hotel Transylvania 3: Summer Vacation","genre_ids":[10751,14,35,16],"backdrop_path":"\/m03jul0YdVEOFXEQVUv6pOVQYGL.jpg","adult":false,"overview":"Dracula, Mavis, Johnny and the rest of the Drac Pack take a vacation on a luxury Monster Cruise Ship, where Dracula falls in love with the ship’s captain, Ericka, who’s secretly a descendant of Abraham Van Helsing, the notorious monster slayer.","release_date":"2018-06-28"},{"vote_count":1917,"id":353081,"video":false,"vote_average":7.2,"title":"Mission: Impossible - Fallout","popularity":51.653,"poster_path":"\/AkJQpZp9WoNdj7pLYSj1L0RcMMN.jpg","original_language":"en","original_title":"Mission: Impossible - Fallout","genre_ids":[12,28,53],"backdrop_path":"\/a9fRqsl6P27qxbDSb4pBXNv9Fwl.jpg","adult":false,"overview":"When an IMF mission ends badly, the world is faced with dire consequences. As Ethan Hunt takes it upon himself to fulfill his original briefing, the CIA begin to question his loyalty and his motives. The IMF team find themselves in a race against time, hunted by assassins while trying to prevent a global catastrophe.","release_date":"2018-07-13"},{"vote_count":13,"id":424694,"video":false,"vote_average":8.3,"title":"Bohemian Rhapsody","popularity":51.324,"poster_path":"\/jf7jiy0rDVn1ljUwv3pWKousQ1p.jpg","original_language":"en","original_title":"Bohemian Rhapsody","genre_ids":[18,10402],"backdrop_path":"\/jNUpYq2jRSwQM89vST9yQZelMSu.jpg","adult":false,"overview":"Singer Freddie Mercury, guitarist Brian May, drummer Roger Taylor and bass guitarist John Deacon take the music world by storm when they form the rock 'n' roll band Queen in 1970. Hit songs become instant classics. When Mercury's increasingly wild lifestyle starts to spiral out of control, Queen soon faces its greatest challenge yet – finding a way to keep the band together amid the success and excess.","release_date":"2018-10-24"},{"vote_count":620,"id":400535,"video":false,"vote_average":6.7,"title":"Sicario: Day of the Soldado","popularity":49.227,"poster_path":"\/msqWSQkU403cQKjQHnWLnugv7EY.jpg","original_language":"en","original_title":"Sicario: Day of the Soldado","genre_ids":[28,80,18,53],"backdrop_path":"\/5vlYaha6IpsTOUIPZExO7Ruvzyn.jpg","adult":false,"overview":"Agent Matt Graver teams up with operative Alejandro Gillick to prevent Mexican drug cartels from smuggling terrorists across the United States border.","release_date":"2018-06-27"},{"vote_count":703,"id":345887,"video":false,"vote_average":6.2,"title":"The Equalizer 2","popularity":47.629,"poster_path":"\/cQvc9N6JiMVKqol3wcYrGshsIdZ.jpg","original_language":"en","original_title":"The Equalizer 2","genre_ids":[53,28,80],"backdrop_path":"\/z6KLDE72SxE1A8JcJTmmnWArOvR.jpg","adult":false,"overview":"Robert McCall returns to deliver his special brand of vigilante justice—but how far will he go when it’s someone he loves?","release_date":"2018-07-19"},{"vote_count":9632,"id":102899,"video":false,"vote_average":7.1,"title":"Ant-Man","popularity":47.48,"poster_path":"\/D6e8RJf2qUstnfkTslTXNTUAlT.jpg","original_language":"en","original_title":"Ant-Man","genre_ids":[878,28,12],"backdrop_path":"\/kvXLZqY0Ngl1XSw7EaMQO0C1CCj.jpg","adult":false,"overview":"Armed with the astonishing ability to shrink in scale but increase in strength, master thief Scott Lang must embrace his inner-hero and help his mentor, Doctor Hank Pym, protect the secret behind his spectacular Ant-Man suit from a new generation of towering threats. Against seemingly insurmountable obstacles, Pym and Lang must plan and pull off a heist that will save the world.","release_date":"2015-07-14"},{"vote_count":8711,"id":284053,"video":false,"vote_average":7.5,"title":"Thor: Ragnarok","popularity":46.257,"poster_path":"\/rzRwTcFvttcN1ZpX2xv4j3tSdJu.jpg","original_language":"en","original_title":"Thor: Ragnarok","genre_ids":[28,12,35,14,878],"backdrop_path":"\/kaIfm5ryEOwYg8mLbq8HkPuM1Fo.jpg","adult":false,"overview":"Thor is on the other side of the universe and finds himself in a race against time to get back to Asgard to stop Ragnarok, the prophecy of destruction to his homeworld and the end of Asgardian civilization, at the hands of an all-powerful new threat, the ruthless Hela.","release_date":"2017-10-25"},{"vote_count":9199,"id":198663,"video":false,"vote_average":7.1,"title":"The Maze Runner","popularity":46.078,"poster_path":"\/coss7RgL0NH6g4fC2s5atvf3dFO.jpg","original_language":"en","original_title":"The Maze Runner","genre_ids":[28,9648,878,53],"backdrop_path":"\/lkOZcsXcOLZYeJ2YxJd3vSldvU4.jpg","adult":false,"overview":"Set in a post-apocalyptic world, young Thomas is deposited in a community of boys after his memory is erased, soon learning they're all trapped in a maze that will require him to join forces with fellow “runners” for a shot at escape.","release_date":"2014-09-10"},{"vote_count":139,"id":433498,"video":false,"vote_average":7.6,"title":"Papillon","popularity":45.949,"poster_path":"\/ahF5c6vyP8HWMqIwlhecbRALkjq.jpg","original_language":"en","original_title":"Papillon","genre_ids":[18,12],"backdrop_path":"\/dcfUqO8UPltBl45O4YcFE66RzZe.jpg","adult":false,"overview":"Henri \"Papillon\" Charrière is convicted in Paris for a murder he did not commit. Sentenced to life imprisonment in the penal colony of French Guiana, he becomes obsessed with escaping. After planning and executing a series of treacherous yet failed attempts, he's sent to the notorious prison Devil's Island, a place from which no one has ever escaped.","release_date":"2018-07-26"},{"vote_count":10575,"id":22,"video":false,"vote_average":7.6,"title":"Pirates of the Caribbean: The Curse of the Black Pearl","popularity":45.225,"poster_path":"\/tkt9xR1kNX5R9rCebASKck44si2.jpg","original_language":"en","original_title":"Pirates of the Caribbean: The Curse of the Black Pearl","genre_ids":[12,14,28],"backdrop_path":"\/8AUQ7YlJJA9C8kWk8P4YNHIcFDE.jpg","adult":false,"overview":"Jack Sparrow, a freewheeling 19th-century pirate, quarrels with a rival pirate bent on pillaging Port Royal. When the governor's daughter is kidnapped, Sparrow decides to help the girl's love save her.","release_date":"2003-07-09"}]}
